Growth Rt ID,Job Name,ATK,DEF,MAG,SPD,SKL,LUK,HP
6001,,,,,,,,
6002,,,,,,,,
6003,,,,,,,,
6004,,,,,,,,
6005,,,,,,,,
6006,,,,,,,,
6007,,,,,,,,
6008,,,,,,,,
6009,,,,,,,,
6010,,,,,,,,
6011,,,,,,,,
6012,,,,,,,,
6013,,,,,,,,
6014,,,,,,,,
6015,,,,,,,,
6016,,,,,,,,
6017,,,,,,,,
6018,,,,,,,,
6019,,,,,,,,
6020,,,,,,,,
6021,,,,,,,,
6022,,,,,,,,
6023,,,,,,,,
6024,,,,,,,,
